GGPLOT2
…
df_sd <- df %>% 
  select(type, sd_h, sd_w) %>% 
  tidyr::pivot_longer(cols = c("sd_h", "sd_w"), names_to = "tipo", values_to = "sd") %>%
  mutate(
    tipo = ifelse(tipo == "sd_h", "Altura", "Peso")
  )

df <- inner_join(df_media, df_sd, by = c("type", "tipo"))
df

## # A tibble: 36 x 4
##    type     tipo   media    sd
##    <chr>    <chr>  <dbl> <dbl>
##  1 bug      Altura  930.  589.
##  2 bug      Peso    327.  521.
##  3 dark     Altura 1344. 1267.
##  4 dark     Peso    616. 1496.
##  5 dragon   Altura 2053. 1564.
##  6 dragon   Peso    992. 1064.
##  7 electric Altura 1068.  770.
##  8 electric Peso    408.  502.
##  9 fairy    Altura  902.  872.
## 10 fairy    Peso    255.  506.
## # i 26 more rows
…
